# State file for 'Histogram' class instance
# Do not edit this file!
Dim  1
DimPhys  1
Bins  80
BinsPhys  80
BinsMasked  43
BinsMaskedPhys  43
BinsVisited  43
BinsVisitedPhys  43
Hits  36000000
HitsPhys  36000000
YoYo  1

# Sequence: Dim, HMin, HSize, HBins, HInt
  0        0        1    80        1

# Sequence: Mask, Density of States (DOS), Histogram
 1  5.1875778198242188e+01  832150
 1  5.3291519165039062e+01  834422
 1  5.4043792724609375e+01  833991
 1  5.4410568237304688e+01  832026
 1  5.4536682128906250e+01  833943
 1  5.4480560302734375e+01  835247
 1  5.4255981445312500e+01  836447
 1  5.3872711181640625e+01  833623
 1  5.3409637451171875e+01  834279
 1  5.2828491210937500e+01  832989
 1  5.2149688720703125e+01  831617
 1  5.1409927368164062e+01  831414
 1  5.0570297241210938e+01  835206
 1  4.9629211425781250e+01  832281
 1  4.8600967407226562e+01  829734
 1  4.7537597656250000e+01  833345
 1  4.6393524169921875e+01  835419
 1  4.5227630615234375e+01  837409
 1  4.3968673706054688e+01  836738
 1  4.2693115234375000e+01  836755
 1  4.1432342529296875e+01  840723
 1  4.0073593139648438e+01  849256
 1  3.8587570190429688e+01  848356
 1  3.7103622436523438e+01  852918
 1  3.5622161865234375e+01  851659
 1  3.4049377441406250e+01  848985
 1  3.2452865600585938e+01  849964
 1  3.0816345214843750e+01  847995
 1  2.9211730957031250e+01  854653
 1  2.7451004028320312e+01  851472
 1  2.5628829956054688e+01  848566
 1  2.3758911132812500e+01  842703
 1  2.1870468139648438e+01  842922
 1  1.9873626708984375e+01  842915
 1  1.7815139770507812e+01  833084
 1  1.5853637695312500e+01  840777
 1  1.3544235229492188e+01  804094
 1  1.1314773559570312e+01  792026
 1  8.5719451904296875e+00  770060
 1  5.9480895996093750e+00  754097
 1  3.5336761474609375e+00  733042
 1  1.2075500488281250e+00  883569
 1  0.0000000000000000e+00  1037129
 0  0.0000000000000000e+00  0
 0  0.0000000000000000e+00  0
 0  0.0000000000000000e+00  0
 0  0.0000000000000000e+00  0
 0  0.0000000000000000e+00  0
 0  0.0000000000000000e+00  0
 0  0.0000000000000000e+00  0
 0  0.0000000000000000e+00  0
 0  0.0000000000000000e+00  0
 0  0.0000000000000000e+00  0
 0  0.0000000000000000e+00  0
 0  0.0000000000000000e+00  0
 0  0.0000000000000000e+00  0
 0  0.0000000000000000e+00  0
 0  0.0000000000000000e+00  0
 0  0.0000000000000000e+00  0
 0  0.0000000000000000e+00  0
 0  0.0000000000000000e+00  0
 0  0.0000000000000000e+00  0
 0  0.0000000000000000e+00  0
 0  0.0000000000000000e+00  0
 0  0.0000000000000000e+00  0
 0  0.0000000000000000e+00  0
 0  0.0000000000000000e+00  0
 0  0.0000000000000000e+00  0
 0  0.0000000000000000e+00  0
 0  0.0000000000000000e+00  0
 0  0.0000000000000000e+00  0
 0  0.0000000000000000e+00  0
 0  0.0000000000000000e+00  0
 0  0.0000000000000000e+00  0
 0  0.0000000000000000e+00  0
 0  0.0000000000000000e+00  0
 0  0.0000000000000000e+00  0
 0  0.0000000000000000e+00  0
 0  0.0000000000000000e+00  0
 0  0.0000000000000000e+00  0
